<svg xmlns="http://www.w3.org/2000/svg" width="19" height="20" viewBox="0 0 19 20">
    <g fill="none" fill-rule="evenodd">
        <g fill="#AEB7BF" fill-rule="nonzero">
            <g>
                <g>
                    <path d="M5 13L8 13 8 16 10 16 10 13 13 13 13 11 10 11 10 8 8 8 8 11 5 11z" transform="translate(-719 -434) translate(583 420) translate(136.22 14)"/>
                    <path d="M16 2h-2V0h-2v2H6V0H4v2H2C.897 2 0 2.897 0 4v14c0 1.103.897 2 2 2h14c1.103 0 2-.897 2-2V4c0-1.103-.897-2-2-2zm.002 16H2V6h14l.002 12z" transform="translate(-719 -434) translate(583 420) translate(136.22 14)"/>
                </g>
            </g>
        </g>
    </g>
</svg>
